[
  {
    "normalForm": "dhe",
    "id": 1200015,
    "inflected": true,
    "singFirst": [ "dhymm" ],
    "singSecond": [ "dhis" ],
    "singThird": [ "dhodhom" ],
    "singThirdMasc": [ "dhodho" ],
    "singThirdFem": [ "dhedhi" ],
    "plurFirst": [ "dhyn" ],
    "plurSecond": [ "dhywgh" ],
    "plurThird": [ "dhedha" ]
  },
  {
    "normalForm": "gans",
    "id": 1200016,
    "inflected": true,
    "singFirst": [ "genev" ],
    "singSecond": [ "genes" ],
    "singThird": [ "gansom" ],
    "singThirdMasc": [ "ganso" ],
    "singThirdFem": [ "gensi" ],
    "plurFirst": [ "genen" ],
    "plurSecond": [ "genowgh" ],
    "plurThird": [ "gansa" ]
  },
  {
    "normalForm": "rag",
    "id": 1200017,
    "inflected": true,
    "singFirst": [ "ragov" ],
    "singSecond": [ "ragos" ],
    "singThird": [ "ragdhom" ],
    "singThirdMasc": [ "ragdho" ],
    "singThirdFem": [ "rygdhi" ],
    "plurFirst": [ "ragon" ],
    "plurSecond": [ "ragowgh" ],
    "plurThird": [ "ragdha" ]
  },
  {
    "normalForm": "orth",
    "id": 1200018,
    "inflected": true,
    "singFirst": [ "orthiv" ],
    "singSecond": [ "orthis" ],
    "singThird": [ "orto" ],
    "singThirdMasc": [ "orto" ],
    "singThirdFem": [ "orti" ],
    "plurFirst": [ "orthyn" ],
    "plurSecond": [ "orthowgh" ],
    "plurThird": [ "orta" ]
  }
]